BSMM-lab-2
…
the_tate_artists <- read_csv("data/the-tate-artists.csv")

Rows: 3532 Columns: 9
── Column specification ────────────────────────────────────────────────────────
Delimiter: ","
chr (6): name, gender, dates, placeOfBirth, placeOfDeath, url
dbl (3): id, yearOfBirth, yearOfDeath

ℹ Use `spec()` to retrieve the full column specification for this data.
ℹ Specify the column types or set `show_col_types = FALSE` to quiet this message.

print(the_tate)

# A tibble: 69,201 × 20
      id accession_number artist       artistRole artistId title dateText medium
   <dbl> <chr>            <chr>        <chr>         <dbl> <chr> <chr>    <chr> 
 1 20400 P77527           Charlton, A… artist          891 [no … 1991     Scree…
 2 20618 P77580           Artschwager… artist          669 Inte… 1972     Scree…
 3 20830 P77612           Marden, Bri… artist         1578 [no … 1971     Etchi…
 4 21086 P77680           Francis, Ma… artist         2311 Unti… 1994     Monot…
 5 21163 P77699           Self, Colin  artist         1922 Powe… 1968     Scree…
 6 21157 P77704           Woodrow, Bi… artist         2170 [ind… 1994     Linoc…
 7 21153 P77708           Woodrow, Bi… artist         2170 Iron  1994     Linoc…
 8 21210 P77731           Sherman, Ci… artist         1938 Unti… 1982     Photo…
 9 21271 P77738           Wilding, Al… artist         2146 [no … 1994     Etchi…
10 21405 P77748           Struth, Tho… artist         2339 Vico… 1988     Photo…
# ℹ 69,191 more rows
# ℹ 12 more variables: creditLine <chr>, year <dbl>, acquisitionYear <dbl>,
#   dimensions <chr>, width <dbl>, height <dbl>, depth <dbl>, units <chr>,
#   inscription <chr>, thumbnailCopyright <chr>, thumbnailUrl <chr>, url <chr>
…
works_with_missing_year <- sum(is.na(the_tate$year))
print(works_with_missing_year)

[1] 5397

# Filter the 'the_tate' dataset to select rows with missing 'year' values #
the_tate|>dplyr::filter(is.na(year))|>dplyr::distinct(artist)

# A tibble: 461 × 1
   artist                           
   <chr>                            
 1 Burne-Jones, Sir Edward Coley, Bt
 2 Houghton, Arthur Boyd            
 3 Jones, George                    
 4 Poynter, Sir Edward              
 5 Varley, John                     
 6 Stothard, Thomas                 
 7 Hunt, William Henry              
 8 Smetham, James                   
 9 Keene, Charles Samuel            
10 Swan, John Macallan              
# ℹ 451 more rows
…
[1] 461

#Filter the tate_dataset to select rows with missing year values#
artist_missing_year_count <- the_tate|>dplyr::filter(is.na(year)) |> 
  group_by(artist) |>
  summarise(missing_year = sum(is.na(year))) |> 
  arrange(desc(missing_year)) |> #Arrange the results in descending order of missing 'year' counts#
  as_tibble()

print(artist_missing_year_count)

# A tibble: 461 × 2
   artist                         missing_year
   <chr>                                 <int>
 1 Jones, George                          1039
 2 Turner, Joseph Mallord William          343
 3 British (?) School                      325
 4 Cozens, Alexander                       209
 5 Dance-Holland, Sir Nathaniel            163
 6 Stothard, Thomas                        158
 7 Flaxman, John                           136
 8 Barlow, Francis                         106
 9 Davis, John Scarlett                     83
10 Hunt, William Henry                      78
# ℹ 451 more rows
…
Exercise 3

# Calculate the count of works for each artist in the 'the_tate' dataset #
artist_work_counts <- the_tate |>
  group_by(artist) |>
  summarize(title = n()) |>
  arrange(desc(title))

# Extract and display the top 10 artists with the most works #
top_10_artists <- artist_work_counts |>
  slice_head(n = 10)

print(artist_work_counts)

# A tibble: 3,336 × 2
   artist                         title
   <chr>                          <int>
 1 Turner, Joseph Mallord William 39389
 2 Jones, George                   1046
 3 Moore, Henry, OM, CH             623
 4 Daniell, William                 612
 5 Beuys, Joseph                    578
 6 British (?) School               388
 7 Paolozzi, Sir Eduardo            385
 8 Flaxman, John                    287
 9 Phillips, Esq Tom                274
10 Warhol, Andy                     272
# ℹ 3,326 more rows
…
Exercise 4

library(dplyr)
library(gt)
library(gtExtras)

# Assuming you have a dataframe or tibble named 'the_tate'

# Calculate total works #
total_works <- nrow(the_tate)
artist_work_counts %<>%mutate(percentage=(title/total_works)*100)
print(artist_work_counts)

# A tibble: 3,336 × 3
   artist                         title percentage
   <chr>                          <int>      <dbl>
 1 Turner, Joseph Mallord William 39389     56.9  
 2 Jones, George                   1046      1.51 
 3 Moore, Henry, OM, CH             623      0.900
 4 Daniell, William                 612      0.884
 5 Beuys, Joseph                    578      0.835
 6 British (?) School               388      0.561
 7 Paolozzi, Sir Eduardo            385      0.556
 8 Flaxman, John                    287      0.415
 9 Phillips, Esq Tom                274      0.396
10 Warhol, Andy                     272      0.393
# ℹ 3,326 more rows
…
library(dplyr)

# Left join to group the tables and slice the result by gender criteria #
gender_grouped<- the_tate |>
  dplyr::left_join(the_tate_artists, by = c("artist" = "name")) |>   tidyr::drop_na(gender) |> group_by(gender) # used tidyverse to drop columns having NA values and joined the two tables the_tate and the_tate_artists anf grouped by gender #

Warning in dplyr::left_join(the_tate, the_tate_artists, by = c(artist = "name")): Detected an unexpected many-to-many relationship between `x` and `y`.
ℹ Row 1143 of `x` matches multiple rows in `y`.
ℹ Row 3465 of `y` matches multiple rows in `x`.
ℹ If a many-to-many relationship is expected, set `relationship =
  "many-to-many"` to silence this warning.

print(gender_grouped) # display the gender grouped table

# A tibble: 68,619 × 29
# Groups:   gender [2]
    id.x accession_number artist       artistRole artistId title dateText medium
   <dbl> <chr>            <chr>        <chr>         <dbl> <chr> <chr>    <chr> 
 1 20400 P77527           Charlton, A… artist          891 [no … 1991     Scree…
 2 20618 P77580           Artschwager… artist          669 Inte… 1972     Scree…
 3 20830 P77612           Marden, Bri… artist         1578 [no … 1971     Etchi…
 4 21086 P77680           Francis, Ma… artist         2311 Unti… 1994     Monot…
 5 21163 P77699           Self, Colin  artist         1922 Powe… 1968     Scree…
 6 21157 P77704           Woodrow, Bi… artist         2170 [ind… 1994     Linoc…
 7 21153 P77708           Woodrow, Bi… artist         2170 Iron  1994     Linoc…
 8 21210 P77731           Sherman, Ci… artist         1938 Unti… 1982     Photo…
 9 21271 P77738           Wilding, Al… artist         2146 [no … 1994     Etchi…
10 21405 P77748           Struth, Tho… artist         2339 Vico… 1988     Photo…
# ℹ 68,609 more rows
# ℹ 21 more variables: creditLine <chr>, year <dbl>, acquisitionYear <dbl>,
#   dimensions <chr>, width <dbl>, height <dbl>, depth <dbl>, units <chr>,
#   inscription <chr>, thumbnailCopyright <chr>, thumbnailUrl <chr>,
#   url.x <chr>, area_cmsquare <dbl>, id.y <dbl>, gender <chr>, dates <chr>,
#   yearOfBirth <dbl>, yearOfDeath <dbl>, placeOfBirth <chr>,
#   placeOfDeath <chr>, url.y <chr>
…
data <- read_csv("data/SPX_HistoricalData_1692322132002.csv") 

Rows: 1257 Columns: 6
── Column specification ────────────────────────────────────────────────────────
Delimiter: ","
chr (2): Date, Volume
dbl (4): Close/Last, Open, High, Low

ℹ Use `spec()` to retrieve the full column specification for this data.
ℹ Specify the column types or set `show_col_types = FALSE` to quiet this message.

print(data)

# A tibble: 1,257 × 6
   Date       `Close/Last` Volume  Open  High   Low
   <chr>             <dbl> <chr>  <dbl> <dbl> <dbl>
 1 08/16/2023        4404. --     4434. 4450. 4404.
 2 08/15/2023        4438. --     4479. 4479. 4432.
 3 08/14/2023        4490. --     4458. 4490. 4453.
 4 08/11/2023        4464. --     4451. 4476. 4444.
 5 08/10/2023        4469. --     4487. 4527. 4458.
 6 08/09/2023        4468. --     4502. 4502. 4461.
 7 08/08/2023        4499. --     4498. 4503. 4464.
 8 08/07/2023        4518. --     4492. 4520. 4491.
 9 08/04/2023        4478. --     4514. 4540. 4475.
10 08/03/2023        4502. --     4494. 4519. 4486.
# ℹ 1,247 more rows
…
